info    - EasyRTC: Starting EasyRTC Server (v1.0.14) on Node (v0.10.37)

events.js:72
        throw er; // Unhandled 'error' event
              ^
Error: listen EADDRINUSE
    at errnoException (net.js:905:11)
    at Server._listen2 (net.js:1043:14)
    at listen (net.js:1065:10)
    at Server.listen (net.js:1139:5)
    at Object.<anonymous> (/var/nodes/easyrtc/server.js:15:44)
    at Module._compile (module.js:456:26)
    at Object.Module._extensions..js (module.js:474:10)
    at Module.load (module.js:356:32)
    at Function.Module._load (module.js:312:12)
    at Function.Module.runMain (module.js:497:10)
info    - EasyRTC: Starting EasyRTC Server (v1.0.14) on Node (v0.10.37)
info    - EasyRTC: EasyRTC Server Ready For Connections (v1.0.14)
[ { url: 'stun:turn02.uswest.xirsys.com' },
  { username: '1_dc04d264-8710-11e5-a8c1-9b4629b91be4',
    url: 'turn:turn02.uswest.xirsys.com:443?transport=udp',
    credential: 'dc04d35e-8710-11e5-8bf5-c3631ae96e8e' },
  { username: '1_dc04d264-8710-11e5-a8c1-9b4629b91be4',
    url: 'turn:turn02.uswest.xirsys.com:443?transport=tcp',
    credential: 'dc04d35e-8710-11e5-8bf5-c3631ae96e8e' },
  { username: '1_dc04d264-8710-11e5-a8c1-9b4629b91be4',
    url: 'turn:turn02.uswest.xirsys.com:5349?transport=udp',
    credential: 'dc04d35e-8710-11e5-8bf5-c3631ae96e8e' },
  { username: '1_dc04d264-8710-11e5-a8c1-9b4629b91be4',
    url: 'turn:turn02.uswest.xirsys.com:5349?transport=tcp',
    credential: 'dc04d35e-8710-11e5-8bf5-c3631ae96e8e' } ]
[ { url: 'stun:turn02.uswest.xirsys.com' },
  { username: '1_e335743a-8710-11e5-b540-dc628c2edf40',
    url: 'turn:turn02.uswest.xirsys.com:443?transport=udp',
    credential: 'e33574da-8710-11e5-9e33-044ba27e8c2e' },
  { username: '1_e335743a-8710-11e5-b540-dc628c2edf40',
    url: 'turn:turn02.uswest.xirsys.com:443?transport=tcp',
    credential: 'e33574da-8710-11e5-9e33-044ba27e8c2e' },
  { username: '1_e335743a-8710-11e5-b540-dc628c2edf40',
    url: 'turn:turn02.uswest.xirsys.com:5349?transport=udp',
    credential: 'e33574da-8710-11e5-9e33-044ba27e8c2e' },
  { username: '1_e335743a-8710-11e5-b540-dc628c2edf40',
    url: 'turn:turn02.uswest.xirsys.com:5349?transport=tcp',
    credential: 'e33574da-8710-11e5-9e33-044ba27e8c2e' } ]
[ { url: 'stun:turn02.uswest.xirsys.com' },
  { username: '1_54f9be8c-8711-11e5-bd08-97f0a1689610',
    url: 'turn:turn02.uswest.xirsys.com:443?transport=udp',
    credential: '54f9bfb8-8711-11e5-a5d0-e45e6426c636' },
  { username: '1_54f9be8c-8711-11e5-bd08-97f0a1689610',
    url: 'turn:turn02.uswest.xirsys.com:443?transport=tcp',
    credential: '54f9bfb8-8711-11e5-a5d0-e45e6426c636' },
  { username: '1_54f9be8c-8711-11e5-bd08-97f0a1689610',
    url: 'turn:turn02.uswest.xirsys.com:5349?transport=udp',
    credential: '54f9bfb8-8711-11e5-a5d0-e45e6426c636' },
  { username: '1_54f9be8c-8711-11e5-bd08-97f0a1689610',
    url: 'turn:turn02.uswest.xirsys.com:5349?transport=tcp',
    credential: '54f9bfb8-8711-11e5-a5d0-e45e6426c636' } ]
[ { url: 'stun:turn02.uswest.xirsys.com' },
  { username: '1_cac2adfe-8711-11e5-9eaa-c542b533dd30',
    url: 'turn:turn02.uswest.xirsys.com:443?transport=udp',
    credential: 'cac2af0c-8711-11e5-b71f-cb3ce1211ed7' },
  { username: '1_cac2adfe-8711-11e5-9eaa-c542b533dd30',
    url: 'turn:turn02.uswest.xirsys.com:443?transport=tcp',
    credential: 'cac2af0c-8711-11e5-b71f-cb3ce1211ed7' },
  { username: '1_cac2adfe-8711-11e5-9eaa-c542b533dd30',
    url: 'turn:turn02.uswest.xirsys.com:5349?transport=udp',
    credential: 'cac2af0c-8711-11e5-b71f-cb3ce1211ed7' },
  { username: '1_cac2adfe-8711-11e5-9eaa-c542b533dd30',
    url: 'turn:turn02.uswest.xirsys.com:5349?transport=tcp',
    credential: 'cac2af0c-8711-11e5-b71f-cb3ce1211ed7' } ]
[ { url: 'stun:turn02.uswest.xirsys.com' },
  { username: '1_d30b6c6c-8711-11e5-949d-96742fd961eb',
    url: 'turn:turn02.uswest.xirsys.com:443?transport=udp',
    credential: 'd30b6d0c-8711-11e5-8894-e96fd6dfb34c' },
  { username: '1_d30b6c6c-8711-11e5-949d-96742fd961eb',
    url: 'turn:turn02.uswest.xirsys.com:443?transport=tcp',
    credential: 'd30b6d0c-8711-11e5-8894-e96fd6dfb34c' },
  { username: '1_d30b6c6c-8711-11e5-949d-96742fd961eb',
    url: 'turn:turn02.uswest.xirsys.com:5349?transport=udp',
    credential: 'd30b6d0c-8711-11e5-8894-e96fd6dfb34c' },
  { username: '1_d30b6c6c-8711-11e5-949d-96742fd961eb',
    url: 'turn:turn02.uswest.xirsys.com:5349?transport=tcp',
    credential: 'd30b6d0c-8711-11e5-8894-e96fd6dfb34c' } ]
info    - EasyRTC: Starting EasyRTC Server (v1.0.14) on Node (v0.10.37)
info    - EasyRTC: EasyRTC Server Ready For Connections (v1.0.14)
warning - EasyRTC: Attempt to request non-existent connection key: 'dm4B2Jo4WLb63xTgAAAE'
warning - EasyRTC: [easyrtc.audioVideoSimple][VpwvnZMu9RzSZfIsAAAA] Could not send WebRTC signal to client [dm4B2Jo4WLb63xTgAAAE]. They may no longer be online.
[ { url: 'stun:turn01.uswest.xirsys.com' },
  { username: '1_5261d974-8712-11e5-9b0d-1a941846b025',
    url: 'turn:turn01.uswest.xirsys.com:443?transport=udp',
    credential: '5261da50-8712-11e5-8bc0-45dff13c79a7' },
  { username: '1_5261d974-8712-11e5-9b0d-1a941846b025',
    url: 'turn:turn01.uswest.xirsys.com:443?transport=tcp',
    credential: '5261da50-8712-11e5-8bc0-45dff13c79a7' },
  { username: '1_5261d974-8712-11e5-9b0d-1a941846b025',
    url: 'turn:turn01.uswest.xirsys.com:5349?transport=udp',
    credential: '5261da50-8712-11e5-8bc0-45dff13c79a7' },
  { username: '1_5261d974-8712-11e5-9b0d-1a941846b025',
    url: 'turn:turn01.uswest.xirsys.com:5349?transport=tcp',
    credential: '5261da50-8712-11e5-8bc0-45dff13c79a7' } ]
[ { url: 'stun:turn01.uswest.xirsys.com' },
  { username: '1_548f3caa-8712-11e5-995c-27b2ce023b64',
    url: 'turn:turn01.uswest.xirsys.com:443?transport=udp',
    credential: '548f3dcc-8712-11e5-ad87-57503d3fa2b0' },
  { username: '1_548f3caa-8712-11e5-995c-27b2ce023b64',
    url: 'turn:turn01.uswest.xirsys.com:443?transport=tcp',
    credential: '548f3dcc-8712-11e5-ad87-57503d3fa2b0' },
  { username: '1_548f3caa-8712-11e5-995c-27b2ce023b64',
    url: 'turn:turn01.uswest.xirsys.com:5349?transport=udp',
    credential: '548f3dcc-8712-11e5-ad87-57503d3fa2b0' },
  { username: '1_548f3caa-8712-11e5-995c-27b2ce023b64',
    url: 'turn:turn01.uswest.xirsys.com:5349?transport=tcp',
    credential: '548f3dcc-8712-11e5-ad87-57503d3fa2b0' } ]
[ { url: 'stun:turn02.uswest.xirsys.com' },
  { username: '1_3d4d0c88-8713-11e5-8b50-c944444088c8',
    url: 'turn:turn02.uswest.xirsys.com:443?transport=udp',
    credential: '3d4d0d78-8713-11e5-ba4a-34b1be94f9ca' },
  { username: '1_3d4d0c88-8713-11e5-8b50-c944444088c8',
    url: 'turn:turn02.uswest.xirsys.com:443?transport=tcp',
    credential: '3d4d0d78-8713-11e5-ba4a-34b1be94f9ca' },
  { username: '1_3d4d0c88-8713-11e5-8b50-c944444088c8',
    url: 'turn:turn02.uswest.xirsys.com:5349?transport=udp',
    credential: '3d4d0d78-8713-11e5-ba4a-34b1be94f9ca' },
  { username: '1_3d4d0c88-8713-11e5-8b50-c944444088c8',
    url: 'turn:turn02.uswest.xirsys.com:5349?transport=tcp',
    credential: '3d4d0d78-8713-11e5-ba4a-34b1be94f9ca' } ]
[ { url: 'stun:turn02.uswest.xirsys.com' },
  { username: '1_44bc36f6-8713-11e5-8933-70aac0338515',
    url: 'turn:turn02.uswest.xirsys.com:443?transport=udp',
    credential: '44bc3796-8713-11e5-8d2c-fbb7ed299ed7' },
  { username: '1_44bc36f6-8713-11e5-8933-70aac0338515',
    url: 'turn:turn02.uswest.xirsys.com:443?transport=tcp',
    credential: '44bc3796-8713-11e5-8d2c-fbb7ed299ed7' },
  { username: '1_44bc36f6-8713-11e5-8933-70aac0338515',
    url: 'turn:turn02.uswest.xirsys.com:5349?transport=udp',
    credential: '44bc3796-8713-11e5-8d2c-fbb7ed299ed7' },
  { username: '1_44bc36f6-8713-11e5-8933-70aac0338515',
    url: 'turn:turn02.uswest.xirsys.com:5349?transport=tcp',
    credential: '44bc3796-8713-11e5-8d2c-fbb7ed299ed7' } ]
[ { url: 'stun:turn01.uswest.xirsys.com' },
  { username: '1_6a67d27a-8713-11e5-a193-269f6f992b26',
    url: 'turn:turn01.uswest.xirsys.com:443?transport=udp',
    credential: '6a67d32e-8713-11e5-875d-8c0c21af88f7' },
  { username: '1_6a67d27a-8713-11e5-a193-269f6f992b26',
    url: 'turn:turn01.uswest.xirsys.com:443?transport=tcp',
    credential: '6a67d32e-8713-11e5-875d-8c0c21af88f7' },
  { username: '1_6a67d27a-8713-11e5-a193-269f6f992b26',
    url: 'turn:turn01.uswest.xirsys.com:5349?transport=udp',
    credential: '6a67d32e-8713-11e5-875d-8c0c21af88f7' },
  { username: '1_6a67d27a-8713-11e5-a193-269f6f992b26',
    url: 'turn:turn01.uswest.xirsys.com:5349?transport=tcp',
    credential: '6a67d32e-8713-11e5-875d-8c0c21af88f7' } ]
[ { url: 'stun:turn01.uswest.xirsys.com' },
  { username: '1_72849ad8-8713-11e5-9b9d-1be873a6d76a',
    url: 'turn:turn01.uswest.xirsys.com:443?transport=udp',
    credential: '72849b96-8713-11e5-ae18-5abe137785cd' },
  { username: '1_72849ad8-8713-11e5-9b9d-1be873a6d76a',
    url: 'turn:turn01.uswest.xirsys.com:443?transport=tcp',
    credential: '72849b96-8713-11e5-ae18-5abe137785cd' },
  { username: '1_72849ad8-8713-11e5-9b9d-1be873a6d76a',
    url: 'turn:turn01.uswest.xirsys.com:5349?transport=udp',
    credential: '72849b96-8713-11e5-ae18-5abe137785cd' },
  { username: '1_72849ad8-8713-11e5-9b9d-1be873a6d76a',
    url: 'turn:turn01.uswest.xirsys.com:5349?transport=tcp',
    credential: '72849b96-8713-11e5-ae18-5abe137785cd' } ]
[ { url: 'stun:turn01.uswest.xirsys.com' },
  { username: '1_842533ba-8713-11e5-a3d2-bb397eab335b',
    url: 'turn:turn01.uswest.xirsys.com:443?transport=udp',
    credential: '84253464-8713-11e5-8cd7-f40636ea0240' },
  { username: '1_842533ba-8713-11e5-a3d2-bb397eab335b',
    url: 'turn:turn01.uswest.xirsys.com:443?transport=tcp',
    credential: '84253464-8713-11e5-8cd7-f40636ea0240' },
  { username: '1_842533ba-8713-11e5-a3d2-bb397eab335b',
    url: 'turn:turn01.uswest.xirsys.com:5349?transport=udp',
    credential: '84253464-8713-11e5-8cd7-f40636ea0240' },
  { username: '1_842533ba-8713-11e5-a3d2-bb397eab335b',
    url: 'turn:turn01.uswest.xirsys.com:5349?transport=tcp',
    credential: '84253464-8713-11e5-8cd7-f40636ea0240' } ]
[ { url: 'stun:turn01.uswest.xirsys.com' },
  { username: '1_c1064c42-8713-11e5-a696-1b4245abb68e',
    url: 'turn:turn01.uswest.xirsys.com:443?transport=udp',
    credential: 'c1064cf6-8713-11e5-ad40-fa663631aef4' },
  { username: '1_c1064c42-8713-11e5-a696-1b4245abb68e',
    url: 'turn:turn01.uswest.xirsys.com:443?transport=tcp',
    credential: 'c1064cf6-8713-11e5-ad40-fa663631aef4' },
  { username: '1_c1064c42-8713-11e5-a696-1b4245abb68e',
    url: 'turn:turn01.uswest.xirsys.com:5349?transport=udp',
    credential: 'c1064cf6-8713-11e5-ad40-fa663631aef4' },
  { username: '1_c1064c42-8713-11e5-a696-1b4245abb68e',
    url: 'turn:turn01.uswest.xirsys.com:5349?transport=tcp',
    credential: 'c1064cf6-8713-11e5-ad40-fa663631aef4' } ]
[ { url: 'stun:turn01.uswest.xirsys.com' },
  { username: '1_cb57b384-8713-11e5-b812-d0f4dbf5c7b1',
    url: 'turn:turn01.uswest.xirsys.com:443?transport=udp',
    credential: 'cb57b424-8713-11e5-a450-e1359ac3af55' },
  { username: '1_cb57b384-8713-11e5-b812-d0f4dbf5c7b1',
    url: 'turn:turn01.uswest.xirsys.com:443?transport=tcp',
    credential: 'cb57b424-8713-11e5-a450-e1359ac3af55' },
  { username: '1_cb57b384-8713-11e5-b812-d0f4dbf5c7b1',
    url: 'turn:turn01.uswest.xirsys.com:5349?transport=udp',
    credential: 'cb57b424-8713-11e5-a450-e1359ac3af55' },
  { username: '1_cb57b384-8713-11e5-b812-d0f4dbf5c7b1',
    url: 'turn:turn01.uswest.xirsys.com:5349?transport=tcp',
    credential: 'cb57b424-8713-11e5-a450-e1359ac3af55' } ]
[ { url: 'stun:turn01.uswest.xirsys.com' },
  { username: '1_e9684d48-8713-11e5-a5e4-679afd4ca81c',
    url: 'turn:turn01.uswest.xirsys.com:443?transport=udp',
    credential: 'e9684de8-8713-11e5-860c-894bc368656e' },
  { username: '1_e9684d48-8713-11e5-a5e4-679afd4ca81c',
    url: 'turn:turn01.uswest.xirsys.com:443?transport=tcp',
    credential: 'e9684de8-8713-11e5-860c-894bc368656e' },
  { username: '1_e9684d48-8713-11e5-a5e4-679afd4ca81c',
    url: 'turn:turn01.uswest.xirsys.com:5349?transport=udp',
    credential: 'e9684de8-8713-11e5-860c-894bc368656e' },
  { username: '1_e9684d48-8713-11e5-a5e4-679afd4ca81c',
    url: 'turn:turn01.uswest.xirsys.com:5349?transport=tcp',
    credential: 'e9684de8-8713-11e5-860c-894bc368656e' } ]
[ { url: 'stun:turn02.uswest.xirsys.com' },
  { username: '1_25227c28-8714-11e5-aa0e-0d407b04c26b',
    url: 'turn:turn02.uswest.xirsys.com:443?transport=udp',
    credential: '25227cd2-8714-11e5-9c36-2dd4afcf1c2f' },
  { username: '1_25227c28-8714-11e5-aa0e-0d407b04c26b',
    url: 'turn:turn02.uswest.xirsys.com:443?transport=tcp',
    credential: '25227cd2-8714-11e5-9c36-2dd4afcf1c2f' },
  { username: '1_25227c28-8714-11e5-aa0e-0d407b04c26b',
    url: 'turn:turn02.uswest.xirsys.com:5349?transport=udp',
    credential: '25227cd2-8714-11e5-9c36-2dd4afcf1c2f' },
  { username: '1_25227c28-8714-11e5-aa0e-0d407b04c26b',
    url: 'turn:turn02.uswest.xirsys.com:5349?transport=tcp',
    credential: '25227cd2-8714-11e5-9c36-2dd4afcf1c2f' } ]
[ { url: 'stun:turn02.uswest.xirsys.com' },
  { username: '15589e92-9c38-11e5-93bd-82bd92595ce7',
    url: 'turn:turn02.uswest.xirsys.com:443?transport=udp',
    credential: '15589f96-9c38-11e5-87ca-dcb8f5245172' },
  { username: '15589e92-9c38-11e5-93bd-82bd92595ce7',
    url: 'turn:turn02.uswest.xirsys.com:443?transport=tcp',
    credential: '15589f96-9c38-11e5-87ca-dcb8f5245172' },
  { username: '15589e92-9c38-11e5-93bd-82bd92595ce7',
    url: 'turn:turn02.uswest.xirsys.com:5349?transport=udp',
    credential: '15589f96-9c38-11e5-87ca-dcb8f5245172' },
  { username: '15589e92-9c38-11e5-93bd-82bd92595ce7',
    url: 'turn:turn02.uswest.xirsys.com:5349?transport=tcp',
    credential: '15589f96-9c38-11e5-87ca-dcb8f5245172' } ]
[ { url: 'stun:turn02.uswest.xirsys.com' },
  { username: '1bd89b5a-9c38-11e5-9ba6-0a014cf70d00',
    url: 'turn:turn02.uswest.xirsys.com:443?transport=udp',
    credential: '1bd89c72-9c38-11e5-86aa-ff972db91c66' },
  { username: '1bd89b5a-9c38-11e5-9ba6-0a014cf70d00',
    url: 'turn:turn02.uswest.xirsys.com:443?transport=tcp',
    credential: '1bd89c72-9c38-11e5-86aa-ff972db91c66' },
  { username: '1bd89b5a-9c38-11e5-9ba6-0a014cf70d00',
    url: 'turn:turn02.uswest.xirsys.com:5349?transport=udp',
    credential: '1bd89c72-9c38-11e5-86aa-ff972db91c66' },
  { username: '1bd89b5a-9c38-11e5-9ba6-0a014cf70d00',
    url: 'turn:turn02.uswest.xirsys.com:5349?transport=tcp',
    credential: '1bd89c72-9c38-11e5-86aa-ff972db91c66' } ]
[ { url: 'stun:turn02.uswest.xirsys.com' },
  { username: '27e82a1e-9c38-11e5-ae6e-69a9232c84c5',
    url: 'turn:turn02.uswest.xirsys.com:443?transport=udp',
    credential: '27e82adc-9c38-11e5-a7f0-e0564aeaf8b8' },
  { username: '27e82a1e-9c38-11e5-ae6e-69a9232c84c5',
    url: 'turn:turn02.uswest.xirsys.com:443?transport=tcp',
    credential: '27e82adc-9c38-11e5-a7f0-e0564aeaf8b8' },
  { username: '27e82a1e-9c38-11e5-ae6e-69a9232c84c5',
    url: 'turn:turn02.uswest.xirsys.com:5349?transport=udp',
    credential: '27e82adc-9c38-11e5-a7f0-e0564aeaf8b8' },
  { username: '27e82a1e-9c38-11e5-ae6e-69a9232c84c5',
    url: 'turn:turn02.uswest.xirsys.com:5349?transport=tcp',
    credential: '27e82adc-9c38-11e5-a7f0-e0564aeaf8b8' } ]
[ { url: 'stun:turn02.uswest.xirsys.com' },
  { username: '31580582-9c39-11e5-8a13-d971d2155911',
    url: 'turn:turn02.uswest.xirsys.com:443?transport=udp',
    credential: '31580622-9c39-11e5-b2e2-10b81d04e4a2' },
  { username: '31580582-9c39-11e5-8a13-d971d2155911',
    url: 'turn:turn02.uswest.xirsys.com:443?transport=tcp',
    credential: '31580622-9c39-11e5-b2e2-10b81d04e4a2' },
  { username: '31580582-9c39-11e5-8a13-d971d2155911',
    url: 'turn:turn02.uswest.xirsys.com:5349?transport=udp',
    credential: '31580622-9c39-11e5-b2e2-10b81d04e4a2' },
  { username: '31580582-9c39-11e5-8a13-d971d2155911',
    url: 'turn:turn02.uswest.xirsys.com:5349?transport=tcp',
    credential: '31580622-9c39-11e5-b2e2-10b81d04e4a2' } ]
[ { url: 'stun:turn01.uswest.xirsys.com' },
  { username: '861ac2d0-9c39-11e5-918d-9716fcd0e678',
    url: 'turn:turn01.uswest.xirsys.com:443?transport=udp',
    credential: '861ac37a-9c39-11e5-b91d-1b90c3e6679b' },
  { username: '861ac2d0-9c39-11e5-918d-9716fcd0e678',
    url: 'turn:turn01.uswest.xirsys.com:443?transport=tcp',
    credential: '861ac37a-9c39-11e5-b91d-1b90c3e6679b' },
  { username: '861ac2d0-9c39-11e5-918d-9716fcd0e678',
    url: 'turn:turn01.uswest.xirsys.com:5349?transport=udp',
    credential: '861ac37a-9c39-11e5-b91d-1b90c3e6679b' },
  { username: '861ac2d0-9c39-11e5-918d-9716fcd0e678',
    url: 'turn:turn01.uswest.xirsys.com:5349?transport=tcp',
    credential: '861ac37a-9c39-11e5-b91d-1b90c3e6679b' } ]
[ { url: 'stun:turn01.uswest.xirsys.com' },
  { username: 'a326ff9c-9c39-11e5-8776-2e604078c586',
    url: 'turn:turn01.uswest.xirsys.com:443?transport=udp',
    credential: 'a3270032-9c39-11e5-b544-0b37dbbaba7b' },
  { username: 'a326ff9c-9c39-11e5-8776-2e604078c586',
    url: 'turn:turn01.uswest.xirsys.com:443?transport=tcp',
    credential: 'a3270032-9c39-11e5-b544-0b37dbbaba7b' },
  { username: 'a326ff9c-9c39-11e5-8776-2e604078c586',
    url: 'turn:turn01.uswest.xirsys.com:5349?transport=udp',
    credential: 'a3270032-9c39-11e5-b544-0b37dbbaba7b' },
  { username: 'a326ff9c-9c39-11e5-8776-2e604078c586',
    url: 'turn:turn01.uswest.xirsys.com:5349?transport=tcp',
    credential: 'a3270032-9c39-11e5-b544-0b37dbbaba7b' } ]
[ { url: 'stun:turn01.uswest.xirsys.com' },
  { username: '17c47c8a-9c3a-11e5-9030-86ff4f095cb5',
    url: 'turn:turn01.uswest.xirsys.com:443?transport=udp',
    credential: '17c47d20-9c3a-11e5-a85f-b35acded4583' },
  { username: '17c47c8a-9c3a-11e5-9030-86ff4f095cb5',
    url: 'turn:turn01.uswest.xirsys.com:443?transport=tcp',
    credential: '17c47d20-9c3a-11e5-a85f-b35acded4583' },
  { username: '17c47c8a-9c3a-11e5-9030-86ff4f095cb5',
    url: 'turn:turn01.uswest.xirsys.com:5349?transport=udp',
    credential: '17c47d20-9c3a-11e5-a85f-b35acded4583' },
  { username: '17c47c8a-9c3a-11e5-9030-86ff4f095cb5',
    url: 'turn:turn01.uswest.xirsys.com:5349?transport=tcp',
    credential: '17c47d20-9c3a-11e5-a85f-b35acded4583' } ]
[ { url: 'stun:turn01.uswest.xirsys.com' },
  { username: '3a540248-9c3a-11e5-9149-aecbe059fb59',
    url: 'turn:turn01.uswest.xirsys.com:443?transport=udp',
    credential: '3a5402e8-9c3a-11e5-9701-33b3e402bc99' },
  { username: '3a540248-9c3a-11e5-9149-aecbe059fb59',
    url: 'turn:turn01.uswest.xirsys.com:443?transport=tcp',
    credential: '3a5402e8-9c3a-11e5-9701-33b3e402bc99' },
  { username: '3a540248-9c3a-11e5-9149-aecbe059fb59',
    url: 'turn:turn01.uswest.xirsys.com:5349?transport=udp',
    credential: '3a5402e8-9c3a-11e5-9701-33b3e402bc99' },
  { username: '3a540248-9c3a-11e5-9149-aecbe059fb59',
    url: 'turn:turn01.uswest.xirsys.com:5349?transport=tcp',
    credential: '3a5402e8-9c3a-11e5-9701-33b3e402bc99' } ]
[ { url: 'stun:turn01.uswest.xirsys.com' },
  { username: '52f8cab8-9c3a-11e5-8870-a1e6e18751e6',
    url: 'turn:turn01.uswest.xirsys.com:443?transport=udp',
    credential: '52f8cba8-9c3a-11e5-833f-71f12e30bf72' },
  { username: '52f8cab8-9c3a-11e5-8870-a1e6e18751e6',
    url: 'turn:turn01.uswest.xirsys.com:443?transport=tcp',
    credential: '52f8cba8-9c3a-11e5-833f-71f12e30bf72' },
  { username: '52f8cab8-9c3a-11e5-8870-a1e6e18751e6',
    url: 'turn:turn01.uswest.xirsys.com:5349?transport=udp',
    credential: '52f8cba8-9c3a-11e5-833f-71f12e30bf72' },
  { username: '52f8cab8-9c3a-11e5-8870-a1e6e18751e6',
    url: 'turn:turn01.uswest.xirsys.com:5349?transport=tcp',
    credential: '52f8cba8-9c3a-11e5-833f-71f12e30bf72' } ]
[ { url: 'stun:turn02.uswest.xirsys.com' },
  { username: 'e75c077e-9c3a-11e5-ae7c-81f368e73798',
    url: 'turn:turn02.uswest.xirsys.com:443?transport=udp',
    credential: 'e75c0850-9c3a-11e5-8df1-f4f571d84aa0' },
  { username: 'e75c077e-9c3a-11e5-ae7c-81f368e73798',
    url: 'turn:turn02.uswest.xirsys.com:443?transport=tcp',
    credential: 'e75c0850-9c3a-11e5-8df1-f4f571d84aa0' },
  { username: 'e75c077e-9c3a-11e5-ae7c-81f368e73798',
    url: 'turn:turn02.uswest.xirsys.com:5349?transport=udp',
    credential: 'e75c0850-9c3a-11e5-8df1-f4f571d84aa0' },
  { username: 'e75c077e-9c3a-11e5-ae7c-81f368e73798',
    url: 'turn:turn02.uswest.xirsys.com:5349?transport=tcp',
    credential: 'e75c0850-9c3a-11e5-8df1-f4f571d84aa0' } ]
[ { url: 'stun:turn02.uswest.xirsys.com' },
  { username: '65440aba-9c3b-11e5-b5cd-7f64d16d0b7a',
    url: 'turn:turn02.uswest.xirsys.com:443?transport=udp',
    credential: '65440b50-9c3b-11e5-8fef-68b7abac15a7' },
  { username: '65440aba-9c3b-11e5-b5cd-7f64d16d0b7a',
    url: 'turn:turn02.uswest.xirsys.com:443?transport=tcp',
    credential: '65440b50-9c3b-11e5-8fef-68b7abac15a7' },
  { username: '65440aba-9c3b-11e5-b5cd-7f64d16d0b7a',
    url: 'turn:turn02.uswest.xirsys.com:5349?transport=udp',
    credential: '65440b50-9c3b-11e5-8fef-68b7abac15a7' },
  { username: '65440aba-9c3b-11e5-b5cd-7f64d16d0b7a',
    url: 'turn:turn02.uswest.xirsys.com:5349?transport=tcp',
    credential: '65440b50-9c3b-11e5-8fef-68b7abac15a7' } ]
[ { url: 'stun:turn01.uswest.xirsys.com' },
  { username: '28197d24-a8e2-11e5-b799-524e190fb2d6',
    url: 'turn:turn01.uswest.xirsys.com:443?transport=udp',
    credential: '28197dba-a8e2-11e5-b15a-4deb231a0724' },
  { username: '28197d24-a8e2-11e5-b799-524e190fb2d6',
    url: 'turn:turn01.uswest.xirsys.com:443?transport=tcp',
    credential: '28197dba-a8e2-11e5-b15a-4deb231a0724' },
  { username: '28197d24-a8e2-11e5-b799-524e190fb2d6',
    url: 'turn:turn01.uswest.xirsys.com:5349?transport=udp',
    credential: '28197dba-a8e2-11e5-b15a-4deb231a0724' },
  { username: '28197d24-a8e2-11e5-b799-524e190fb2d6',
    url: 'turn:turn01.uswest.xirsys.com:5349?transport=tcp',
    credential: '28197dba-a8e2-11e5-b15a-4deb231a0724' } ]
[ { url: 'stun:turn01.uswest.xirsys.com' },
  { username: '9a709ca4-a8e2-11e5-89be-4edb48fde1d0',
    url: 'turn:turn01.uswest.xirsys.com:443?transport=udp',
    credential: '9a709d6c-a8e2-11e5-829c-b8768be99a03' },
  { username: '9a709ca4-a8e2-11e5-89be-4edb48fde1d0',
    url: 'turn:turn01.uswest.xirsys.com:443?transport=tcp',
    credential: '9a709d6c-a8e2-11e5-829c-b8768be99a03' },
  { username: '9a709ca4-a8e2-11e5-89be-4edb48fde1d0',
    url: 'turn:turn01.uswest.xirsys.com:5349?transport=udp',
    credential: '9a709d6c-a8e2-11e5-829c-b8768be99a03' },
  { username: '9a709ca4-a8e2-11e5-89be-4edb48fde1d0',
    url: 'turn:turn01.uswest.xirsys.com:5349?transport=tcp',
    credential: '9a709d6c-a8e2-11e5-829c-b8768be99a03' } ]
[ { url: 'stun:turn02.uswest.xirsys.com' },
  { username: 'c99c5ee8-b452-11e5-afc5-f6cd3f3d14a3',
    url: 'turn:turn02.uswest.xirsys.com:443?transport=udp',
    credential: 'c99c5fc4-b452-11e5-9766-fd244bb33169' },
  { username: 'c99c5ee8-b452-11e5-afc5-f6cd3f3d14a3',
    url: 'turn:turn02.uswest.xirsys.com:443?transport=tcp',
    credential: 'c99c5fc4-b452-11e5-9766-fd244bb33169' },
  { username: 'c99c5ee8-b452-11e5-afc5-f6cd3f3d14a3',
    url: 'turn:turn02.uswest.xirsys.com:5349?transport=udp',
    credential: 'c99c5fc4-b452-11e5-9766-fd244bb33169' },
  { username: 'c99c5ee8-b452-11e5-afc5-f6cd3f3d14a3',
    url: 'turn:turn02.uswest.xirsys.com:5349?transport=tcp',
    credential: 'c99c5fc4-b452-11e5-9766-fd244bb33169' } ]
[ { url: 'stun:turn02.uswest.xirsys.com' },
  { username: '3e9d8a0a-bf9d-11e5-9541-107cba26ec0f',
    url: 'turn:turn02.uswest.xirsys.com:443?transport=udp',
    credential: '3e9d8a96-bf9d-11e5-9c01-2aefc0e699d6' },
  { username: '3e9d8a0a-bf9d-11e5-9541-107cba26ec0f',
    url: 'turn:turn02.uswest.xirsys.com:443?transport=tcp',
    credential: '3e9d8a96-bf9d-11e5-9c01-2aefc0e699d6' },
  { username: '3e9d8a0a-bf9d-11e5-9541-107cba26ec0f',
    url: 'turn:turn02.uswest.xirsys.com:5349?transport=udp',
    credential: '3e9d8a96-bf9d-11e5-9c01-2aefc0e699d6' },
  { username: '3e9d8a0a-bf9d-11e5-9541-107cba26ec0f',
    url: 'turn:turn02.uswest.xirsys.com:5349?transport=tcp',
    credential: '3e9d8a96-bf9d-11e5-9c01-2aefc0e699d6' } ]
[ { url: 'stun:turn02.uswest.xirsys.com' },
  { username: '45d9402a-bf9d-11e5-bd0e-b7b517a256c4',
    url: 'turn:turn02.uswest.xirsys.com:443?transport=udp',
    credential: '45d940ca-bf9d-11e5-9a3a-619caa4f5a88' },
  { username: '45d9402a-bf9d-11e5-bd0e-b7b517a256c4',
    url: 'turn:turn02.uswest.xirsys.com:443?transport=tcp',
    credential: '45d940ca-bf9d-11e5-9a3a-619caa4f5a88' },
  { username: '45d9402a-bf9d-11e5-bd0e-b7b517a256c4',
    url: 'turn:turn02.uswest.xirsys.com:5349?transport=udp',
    credential: '45d940ca-bf9d-11e5-9a3a-619caa4f5a88' },
  { username: '45d9402a-bf9d-11e5-bd0e-b7b517a256c4',
    url: 'turn:turn02.uswest.xirsys.com:5349?transport=tcp',
    credential: '45d940ca-bf9d-11e5-9a3a-619caa4f5a88' } ]
